<svg width="60" height="60" viewBox="0 0 60 60" fill="none" xmlns="http://www.w3.org/2000/svg">
<g filter="url(#filter0_d_584_149)">
<path d="M28.8244 0.854104C29.5254 0.344816 30.4746 0.344814 31.1756 0.854102L57.3561 19.8754C58.0571 20.3847 58.3504 21.2874 58.0827 22.1115L48.0826 52.8885C47.8148 53.7126 47.0469 54.2705 46.1805 54.2705H13.8195C12.9531 54.2705 12.1852 53.7126 11.9174 52.8885L1.91733 22.1115C1.64958 21.2874 1.9429 20.3847 2.64387 19.8754L28.8244 0.854104Z" fill="#59C6F2"/>
<path d="M29.4122 1.66312C29.7627 1.40848 30.2373 1.40848 30.5878 1.66312L56.7683 20.6844C57.1188 20.939 57.2655 21.3904 57.1316 21.8024L47.1315 52.5795C46.9977 52.9915 46.6137 53.2705 46.1805 53.2705H13.8195C13.3863 53.2705 13.0023 52.9915 12.8685 52.5795L2.86839 21.8024C2.73451 21.3904 2.88117 20.939 3.23166 20.6844L29.4122 1.66312Z" stroke="white" stroke-width="2"/>
</g>
<defs>
<filter id="filter0_d_584_149" x="-6.18066" y="-7.52789" width="72.3613" height="69.7984" filterUnits="userSpaceOnUse" color-interpolation-filters="sRGB">
<feFlood flood-opacity="0" result="BackgroundImageFix"/>
<feColorMatrix in="SourceAlpha" type="matrix" values="0 0 0 0 0 0 0 0 0 0 0 0 0 0 0 0 0 0 127 0" result="hardAlpha"/>
<feMorphology radius="2" operator="dilate" in="SourceAlpha" result="effect1_dropShadow_584_149"/>
<feOffset/>
<feGaussianBlur stdDeviation="3"/>
<feColorMatrix type="matrix" values="0 0 0 0 0 0 0 0 0 0 0 0 0 0 0 0 0 0 0.07 0"/>
<feBlend mode="normal" in2="BackgroundImageFix" result="effect1_dropShadow_584_149"/>
<feBlend mode="normal" in="SourceGraphic" in2="effect1_dropShadow_584_149" result="shape"/>
</filter>
</defs>
</svg>
